FPGApractice/7.ip_ram/.Xil/Vivado-14656-DESKTOP-O59LNIU/hw_ila_data_1/zip_work/waveform.vcd
$date
        2022-May-14 21:51:10
$end
$version
        Vivado v2021.2 (64-bit)
$end
$timescale
        1ps
$end
$scope module dut $end
$var reg 1 " u_ram_rw/rst_n $end
$var reg 1 # u_ram_rw/ram_wea $end
$var reg 5 $ u_ram_rw/ram_addr [4:0] $end
$var reg 8 ) u_ram_rw/ram_wr_data [7:0] $end
$var reg 8 1 u_ram_rw/ram_rd_data [7:0] $end
$var reg 1 9 _TRIGGER $end
$var reg 1 : _WINDOW $end
$var reg 1 ; _GAP $end
$upscope $end
$enddefinitions $end
#0
$dumpvars
1"
0#
b111 $
b0 )
b110 1
09
1:
0;
$end
#1
b1000 $
b111 1
#2
b1001 $
b1000 1
#3
b1010 $
b1001 1
#4
b1011 $
b1010 1
#5
b1100 $
b1011 1
#6
b1101 $
b1100 1
#7
b1110 $
b1101 1
#8
b1111 $
b1110 1
#9
b10000 $
b1111 1
#10
b10001 $
b10000 1
#11
b10010 $
b10001 1
#12
b10011 $
b10010 1
#13
b10100 $
b10011 1
#14
b10101 $
b10100 1
#15
b10110 $
b10101 1
#16
b10111 $
b10110 1
#17
b11000 $
b10111 1
#18
b11001 $
b11000 1
#19
b11010 $
b11001 1
#20
b11011 $
b11010 1
#21
b11100 $
b11011 1
#22
b11101 $
b11100 1
#23
b11110 $
b11101 1
#24
b11111 $
b11110 1
#25
1#
b0 $
b11111 1
#26
b1 $
b1 )
#27
b10 $
b10 )
#28
b11 $
b11 )
#29
b100 $
b100 )
#30
b101 $
b101 )
#31
b110 $
b110 )
#32
b111 $
b111 )
#33
b1000 $
b1000 )
#34
b1001 $
b1001 )
#35
b1010 $
b1010 )
#36
b1011 $
b1011 )
#37
b1100 $
b1100 )
#38
b1101 $
b1101 )
#39
b1110 $
b1110 )
#40
b1111 $
b1111 )
#41
b10000 $
b10000 )
#42
b10001 $
b10001 )
#43
b10010 $
b10010 )
#44
b10011 $
b10011 )
#45
b10100 $
b10100 )
#46
b10101 $
b10101 )
#47
b10110 $
b10110 )
#48
b10111 $
b10111 )
#49
b11000 $
b11000 )
#50
b11001 $
b11001 )
#51
b11010 $
b11010 )
#52
b11011 $
b11011 )
#53
b11100 $
b11100 )
#54
b11101 $
b11101 )
#55
b11110 $
b11110 )
#56
b11111 $
b11111 )
#57
0#
b0 $
b100000 )
#58
b1 $
b0 )
b0 1
#59
b10 $
b1 1
#60
b11 $
b10 1
#61
b100 $
b11 1
#62
b101 $
b100 1
#63
b110 $
b101 1
#64
b111 $
b110 1
#65
b1000 $
b111 1
#66
b1001 $
b1000 1
#67
b1010 $
b1001 1
#68
b1011 $
b1010 1
#69
b1100 $
b1011 1
#70
b1101 $
b1100 1
#71
b1110 $
b1101 1
#72
b1111 $
b1110 1
#73
b10000 $
b1111 1
#74
b10001 $
b10000 1
#75
b10010 $
b10001 1
#76
b10011 $
b10010 1
#77
b10100 $
b10011 1
#78
b10101 $
b10100 1
#79
b10110 $
b10101 1
#80
b10111 $
b10110 1
#81
b11000 $
b10111 1
#82
b11001 $
b11000 1
#83
b11010 $
b11001 1
#84
b11011 $
b11010 1
#85
b11100 $
b11011 1
#86
b11101 $
b11100 1
#87
b11110 $
b11101 1
#88
b11111 $
b11110 1
#89
1#
b0 $
b11111 1
#90
b1 $
b1 )
#91
b10 $
b10 )
#92
b11 $
b11 )
#93
b100 $
b100 )
#94
b101 $
b101 )
#95
b110 $
b110 )
#96
b111 $
b111 )
#97
b1000 $
b1000 )
#98
b1001 $
b1001 )
#99
b1010 $
b1010 )
#100
b1011 $
b1011 )
#101
b1100 $
b1100 )
#102
b1101 $
b1101 )
#103
b1110 $
b1110 )
#104
b1111 $
b1111 )
#105
b10000 $
b10000 )
#106
b10001 $
b10001 )
#107
b10010 $
b10010 )
#108
b10011 $
b10011 )
#109
b10100 $
b10100 )
#110
b10101 $
b10101 )
#111
b10110 $
b10110 )
#112
b10111 $
b10111 )
#113
b11000 $
b11000 )
#114
b11001 $
b11001 )
#115
b11010 $
b11010 )
#116
b11011 $
b11011 )
#117
b11100 $
b11100 )
#118
b11101 $
b11101 )
#119
b11110 $
b11110 )
#120
b11111 $
b11111 )
#121
0#
b0 $
b100000 )
#122
b1 $
b0 )
b0 1
#123
b10 $
b1 1
#124
b11 $
b10 1
#125
b100 $
b11 1
#126
b101 $
b100 1
#127
b110 $
b101 1
#128
b111 $
b110 1
#129
b1000 $
b111 1
#130
b1001 $
b1000 1
#131
b1010 $
b1001 1
#132
b1011 $
b1010 1
#133
b1100 $
b1011 1
#134
b1101 $
b1100 1
#135
b1110 $
b1101 1
#136
b1111 $
b1110 1
#137
b10000 $
b1111 1
#138
b10001 $
b10000 1
#139
b10010 $
b10001 1
#140
b10011 $
b10010 1
#141
b10100 $
b10011 1
#142
b10101 $
b10100 1
#143
b10110 $
b10101 1
#144
b10111 $
b10110 1
#145
b11000 $
b10111 1
#146
b11001 $
b11000 1
#147
b11010 $
b11001 1
#148
b11011 $
b11010 1
#149
b11100 $
b11011 1
#150
b11101 $
b11100 1
#151
b11110 $
b11101 1
#152
b11111 $
b11110 1
#153
1#
b0 $
b11111 1
#154
b1 $
b1 )
#155
b10 $
b10 )
#156
b11 $
b11 )
#157
b100 $
b100 )
#158
b101 $
b101 )
#159
b110 $
b110 )
#160
b111 $
b111 )
#161
b1000 $
b1000 )
#162
b1001 $
b1001 )
#163
b1010 $
b1010 )
#164
b1011 $
b1011 )
#165
b1100 $
b1100 )
#166
b1101 $
b1101 )
#167
b1110 $
b1110 )
#168
b1111 $
b1111 )
#169
b10000 $
b10000 )
#170
b10001 $
b10001 )
#171
b10010 $
b10010 )
#172
b10011 $
b10011 )
#173
b10100 $
b10100 )
#174
b10101 $
b10101 )
#175
b10110 $
b10110 )
#176
b10111 $
b10111 )
#177
b11000 $
b11000 )
#178
b11001 $
b11001 )
#179
b11010 $
b11010 )
#180
b11011 $
b11011 )
#181
b11100 $
b11100 )
#182
b11101 $
b11101 )
#183
b11110 $
b11110 )
#184
b11111 $
b11111 )
#185
0#
b0 $
b100000 )
#186
b1 $
b0 )
b0 1
#187
b10 $
b1 1
#188
b11 $
b10 1
#189
b100 $
b11 1
#190
b101 $
b100 1
#191
b110 $
b101 1
#192
b111 $
b110 1
#193
b1000 $
b111 1
#194
b1001 $
b1000 1
#195
b1010 $
b1001 1
#196
b1011 $
b1010 1
#197
b1100 $
b1011 1
#198
b1101 $
b1100 1
#199
b1110 $
b1101 1
#200
b1111 $
b1110 1
#201
b10000 $
b1111 1
#202
b10001 $
b10000 1
#203
b10010 $
b10001 1
#204
b10011 $
b10010 1
#205
b10100 $
b10011 1
#206
b10101 $
b10100 1
#207
b10110 $
b10101 1
#208
b10111 $
b10110 1
#209
b11000 $
b10111 1
#210
b11001 $
b11000 1
#211
b11010 $
b11001 1
#212
b11011 $
b11010 1
#213
b11100 $
b11011 1
#214
b11101 $
b11100 1
#215
b11110 $
b11101 1
#216
b11111 $
b11110 1
#217
1#
b0 $
b11111 1
#218
b1 $
b1 )
#219
b10 $
b10 )
#220
b11 $
b11 )
#221
b100 $
b100 )
#222
b101 $
b101 )
#223
b110 $
b110 )
#224
b111 $
b111 )
#225
b1000 $
b1000 )
#226
b1001 $
b1001 )
#227
b1010 $
b1010 )
#228
b1011 $
b1011 )
#229
b1100 $
b1100 )
#230
b1101 $
b1101 )
#231
b1110 $
b1110 )
#232
b1111 $
b1111 )
#233
b10000 $
b10000 )
#234
b10001 $
b10001 )
#235
b10010 $
b10010 )
#236
b10011 $
b10011 )
#237
b10100 $
b10100 )
#238
b10101 $
b10101 )
#239
b10110 $
b10110 )
#240
b10111 $
b10111 )
#241
b11000 $
b11000 )
#242
b11001 $
b11001 )
#243
b11010 $
b11010 )
#244
b11011 $
b11011 )
#245
b11100 $
b11100 )
#246
b11101 $
b11101 )
#247
b11110 $
b11110 )
#248
b11111 $
b11111 )
#249
0#
b0 $
b100000 )
#250
b1 $
b0 )
b0 1
#251
b10 $
b1 1
#252
b11 $
b10 1
#253
b100 $
b11 1
#254
b101 $
b100 1
#255
b110 $
b101 1
#256
b111 $
b110 1
#257
b1000 $
b111 1
#258
b1001 $
b1000 1
#259
b1010 $
b1001 1
#260
b1011 $
b1010 1
#261
b1100 $
b1011 1
#262
b1101 $
b1100 1
#263
b1110 $
b1101 1
#264
b1111 $
b1110 1
#265
b10000 $
b1111 1
#266
b10001 $
b10000 1
#267
b10010 $
b10001 1
#268
b10011 $
b10010 1
#269
b10100 $
b10011 1
#270
b10101 $
b10100 1
#271
b10110 $
b10101 1
#272
b10111 $
b10110 1
#273
b11000 $
b10111 1
#274
b11001 $
b11000 1
#275
b11010 $
b11001 1
#276
b11011 $
b11010 1
#277
b11100 $
b11011 1
#278
b11101 $
b11100 1
#279
b11110 $
b11101 1
#280
b11111 $
b11110 1
#281
1#
b0 $
b11111 1
#282
b1 $
b1 )
#283
b10 $
b10 )
#284
b11 $
b11 )
#285
b100 $
b100 )
#286
b101 $
b101 )
#287
b110 $
b110 )
#288
b111 $
b111 )
#289
b1000 $
b1000 )
#290
b1001 $
b1001 )
#291
b1010 $
b1010 )
#292
b1011 $
b1011 )
#293
b1100 $
b1100 )
#294
b1101 $
b1101 )
#295
b1110 $
b1110 )
#296
b1111 $
b1111 )
#297
b10000 $
b10000 )
#298
b10001 $
b10001 )
#299
b10010 $
b10010 )
#300
b10011 $
b10011 )
#301
b10100 $
b10100 )
#302
b10101 $
b10101 )
#303
b10110 $
b10110 )
#304
b10111 $
b10111 )
#305
b11000 $
b11000 )
#306
b11001 $
b11001 )
#307
b11010 $
b11010 )
#308
b11011 $
b11011 )
#309
b11100 $
b11100 )
#310
b11101 $
b11101 )
#311
b11110 $
b11110 )
#312
b11111 $
b11111 )
#313
0#
b0 $
b100000 )
#314
b1 $
b0 )
b0 1
#315
b10 $
b1 1
#316
b11 $
b10 1
#317
b100 $
b11 1
#318
b101 $
b100 1
#319
b110 $
b101 1
#320
b111 $
b110 1
#321
b1000 $
b111 1
#322
b1001 $
b1000 1
#323
b1010 $
b1001 1
#324
b1011 $
b1010 1
#325
b1100 $
b1011 1
#326
b1101 $
b1100 1
#327
b1110 $
b1101 1
#328
b1111 $
b1110 1
#329
b10000 $
b1111 1
#330
b10001 $
b10000 1
#331
b10010 $
b10001 1
#332
b10011 $
b10010 1
#333
b10100 $
b10011 1
#334
b10101 $
b10100 1
#335
b10110 $
b10101 1
#336
b10111 $
b10110 1
#337
b11000 $
b10111 1
#338
b11001 $
b11000 1
#339
b11010 $
b11001 1
#340
b11011 $
b11010 1
#341
b11100 $
b11011 1
#342
b11101 $
b11100 1
#343
b11110 $
b11101 1
#344
b11111 $
b11110 1
#345
1#
b0 $
b11111 1
#346
b1 $
b1 )
#347
b10 $
b10 )
#348
b11 $
b11 )
#349
b100 $
b100 )
#350
b101 $
b101 )
#351
b110 $
b110 )
#352
b111 $
b111 )
#353
b1000 $
b1000 )
#354
b1001 $
b1001 )
#355
b1010 $
b1010 )
#356
b1011 $
b1011 )
#357
b1100 $
b1100 )
#358
b1101 $
b1101 )
#359
b1110 $
b1110 )
#360
b1111 $
b1111 )
#361
b10000 $
b10000 )
#362
b10001 $
b10001 )
#363
b10010 $
b10010 )
#364
b10011 $
b10011 )
#365
b10100 $
b10100 )
#366
b10101 $
b10101 )
#367
b10110 $
b10110 )
#368
b10111 $
b10111 )
#369
b11000 $
b11000 )
#370
b11001 $
b11001 )
#371
b11010 $
b11010 )
#372
b11011 $
b11011 )
#373
b11100 $
b11100 )
#374
b11101 $
b11101 )
#375
b11110 $
b11110 )
#376
b11111 $
b11111 )
#377
0#
b0 $
b100000 )
#378
b1 $
b0 )
b0 1
#379
b10 $
b1 1
#380
b11 $
b10 1
#381
b100 $
b11 1
#382
b101 $
b100 1
#383
b110 $
b101 1
#384
b111 $
b110 1
#385
b1000 $
b111 1
#386
b1001 $
b1000 1
#387
b1010 $
b1001 1
#388
b1011 $
b1010 1
#389
b1100 $
b1011 1
#390
b1101 $
b1100 1
#391
b1110 $
b1101 1
#392
b1111 $
b1110 1
#393
b10000 $
b1111 1
#394
b10001 $
b10000 1
#395
b10010 $
b10001 1
#396
b10011 $
b10010 1
#397
b10100 $
b10011 1
#398
b10101 $
b10100 1
#399
b10110 $
b10101 1
#400
b10111 $
b10110 1
#401
b11000 $
b10111 1
#402
b11001 $
b11000 1
#403
b11010 $
b11001 1
#404
b11011 $
b11010 1
#405
b11100 $
b11011 1
#406
b11101 $
b11100 1
#407
b11110 $
b11101 1
#408
b11111 $
b11110 1
#409
1#
b0 $
b11111 1
#410
b1 $
b1 )
#411
b10 $
b10 )
#412
b11 $
b11 )
#413
b100 $
b100 )
#414
b101 $
b101 )
#415
b110 $
b110 )
#416
b111 $
b111 )
#417
b1000 $
b1000 )
#418
b1001 $
b1001 )
#419
b1010 $
b1010 )
#420
b1011 $
b1011 )
#421
b1100 $
b1100 )
#422
b1101 $
b1101 )
#423
b1110 $
b1110 )
#424
b1111 $
b1111 )
#425
b10000 $
b10000 )
#426
b10001 $
b10001 )
#427
b10010 $
b10010 )
#428
b10011 $
b10011 )
#429
b10100 $
b10100 )
#430
b10101 $
b10101 )
#431
b10110 $
b10110 )
#432
b10111 $
b10111 )
#433
b11000 $
b11000 )
#434
b11001 $
b11001 )
#435
b11010 $
b11010 )
#436
b11011 $
b11011 )
#437
b11100 $
b11100 )
#438
b11101 $
b11101 )
#439
b11110 $
b11110 )
#440
b11111 $
b11111 )
#441
0#
b0 $
b100000 )
#442
b1 $
b0 )
b0 1
#443
b10 $
b1 1
#444
b11 $
b10 1
#445
b100 $
b11 1
#446
b101 $
b100 1
#447
b110 $
b101 1
#448
b111 $
b110 1
#449
b1000 $
b111 1
#450
b1001 $
b1000 1
#451
b1010 $
b1001 1
#452
b1011 $
b1010 1
#453
b1100 $
b1011 1
#454
b1101 $
b1100 1
#455
b1110 $
b1101 1
#456
b1111 $
b1110 1
#457
b10000 $
b1111 1
#458
b10001 $
b10000 1
#459
b10010 $
b10001 1
#460
b10011 $
b10010 1
#461
b10100 $
b10011 1
#462
b10101 $
b10100 1
#463
b10110 $
b10101 1
#464
b10111 $
b10110 1
#465
b11000 $
b10111 1
#466
b11001 $
b11000 1
#467
b11010 $
b11001 1
#468
b11011 $
b11010 1
#469
b11100 $
b11011 1
#470
b11101 $
b11100 1
#471
b11110 $
b11101 1
#472
b11111 $
b11110 1
#473
1#
b0 $
b11111 1
#474
b1 $
b1 )
#475
b10 $
b10 )
#476
b11 $
b11 )
#477
b100 $
b100 )
#478
b101 $
b101 )
#479
b110 $
b110 )
#480
b111 $
b111 )
#481
b1000 $
b1000 )
#482
b1001 $
b1001 )
#483
b1010 $
b1010 )
#484
b1011 $
b1011 )
#485
b1100 $
b1100 )
#486
b1101 $
b1101 )
#487
b1110 $
b1110 )
#488
b1111 $
b1111 )
#489
b10000 $
b10000 )
#490
b10001 $
b10001 )
#491
b10010 $
b10010 )
#492
b10011 $
b10011 )
#493
b10100 $
b10100 )
#494
b10101 $
b10101 )
#495
b10110 $
b10110 )
#496
b10111 $
b10111 )
#497
b11000 $
b11000 )
#498
b11001 $
b11001 )
#499
b11010 $
b11010 )
#500
b11011 $
b11011 )
#501
b11100 $
b11100 )
#502
b11101 $
b11101 )
#503
b11110 $
b11110 )
#504
b11111 $
b11111 )
#505
0#
b0 $
b100000 )
#506
b1 $
b0 )
b0 1
#507
b10 $
b1 1
#508
b11 $
b10 1
#509
b100 $
b11 1
#510
b101 $
b100 1
#511
b110 $
b101 1
#512
b111 $
b110 1
19
#513
b1000 $
b111 1
#514
b1001 $
b1000 1
#515
b1010 $
b1001 1
#516
b1011 $
b1010 1
#517
b1100 $
b1011 1
#518
b1101 $
b1100 1
#519
b1110 $
b1101 1
#520
b1111 $
b1110 1
#521
b10000 $
b1111 1
#522
b10001 $
b10000 1
#523
b10010 $
b10001 1
#524
b10011 $
b10010 1
#525
b10100 $
b10011 1
#526
b10101 $
b10100 1
#527
b10110 $
b10101 1
#528
b10111 $
b10110 1
#529
b11000 $
b10111 1
#530
b11001 $
b11000 1
#531
b11010 $
b11001 1
#532
b11011 $
b11010 1
#533
b11100 $
b11011 1
#534
b11101 $
b11100 1
#535
b11110 $
b11101 1
#536
b11111 $
b11110 1
#537
1#
b0 $
b11111 1
#538
b1 $
b1 )
#539
b10 $
b10 )
#540
b11 $
b11 )
#541
b100 $
b100 )
#542
b101 $
b101 )
#543
b110 $
b110 )
#544
b111 $
b111 )
#545
b1000 $
b1000 )
#546
b1001 $
b1001 )
#547
b1010 $
b1010 )
#548
b1011 $
b1011 )
#549
b1100 $
b1100 )
#550
b1101 $
b1101 )
#551
b1110 $
b1110 )
#552
b1111 $
b1111 )
#553
b10000 $
b10000 )
#554
b10001 $
b10001 )
#555
b10010 $
b10010 )
#556
b10011 $
b10011 )
#557
b10100 $
b10100 )
#558
b10101 $
b10101 )
#559
b10110 $
b10110 )
#560
b10111 $
b10111 )
#561
b11000 $
b11000 )
#562
b11001 $
b11001 )
#563
b11010 $
b11010 )
#564
b11011 $
b11011 )
#565
b11100 $
b11100 )
#566
b11101 $
b11101 )
#567
b11110 $
b11110 )
#568
b11111 $
b11111 )
#569
0#
b0 $
b100000 )
#570
b1 $
b0 )
b0 1
#571
b10 $
b1 1
#572
b11 $
b10 1
#573
b100 $
b11 1
#574
b101 $
b100 1
#575
b110 $
b101 1
#576
b111 $
b110 1
#577
b1000 $
b111 1
#578
b1001 $
b1000 1
#579
b1010 $
b1001 1
#580
b1011 $
b1010 1
#581
b1100 $
b1011 1
#582
b1101 $
b1100 1
#583
b1110 $
b1101 1
#584
b1111 $
b1110 1
#585
b10000 $
b1111 1
#586
b10001 $
b10000 1
#587
b10010 $
b10001 1
#588
b10011 $
b10010 1
#589
b10100 $
b10011 1
#590
b10101 $
b10100 1
#591
b10110 $
b10101 1
#592
b10111 $
b10110 1
#593
b11000 $
b10111 1
#594
b11001 $
b11000 1
#595
b11010 $
b11001 1
#596
b11011 $
b11010 1
#597
b11100 $
b11011 1
#598
b11101 $
b11100 1
#599
b11110 $
b11101 1
#600
b11111 $
b11110 1
#601
1#
b0 $
b11111 1
#602
b1 $
b1 )
#603
b10 $
b10 )
#604
b11 $
b11 )
#605
b100 $
b100 )
#606
b101 $
b101 )
#607
b110 $
b110 )
#608
b111 $
b111 )
#609
b1000 $
b1000 )
#610
b1001 $
b1001 )
#611
b1010 $
b1010 )
#612
b1011 $
b1011 )
#613
b1100 $
b1100 )
#614
b1101 $
b1101 )
#615
b1110 $
b1110 )
#616
b1111 $
b1111 )
#617
b10000 $
b10000 )
#618
b10001 $
b10001 )
#619
b10010 $
b10010 )
#620
b10011 $
b10011 )
#621
b10100 $
b10100 )
#622
b10101 $
b10101 )
#623
b10110 $
b10110 )
#624
b10111 $
b10111 )
#625
b11000 $
b11000 )
#626
b11001 $
b11001 )
#627
b11010 $
b11010 )
#628
b11011 $
b11011 )
#629
b11100 $
b11100 )
#630
b11101 $
b11101 )
#631
b11110 $
b11110 )
#632
b11111 $
b11111 )
#633
0#
b0 $
b100000 )
#634
b1 $
b0 )
b0 1
#635
b10 $
b1 1
#636
b11 $
b10 1
#637
b100 $
b11 1
#638
b101 $
b100 1
#639
b110 $
b101 1
#640
b111 $
b110 1
#641
b1000 $
b111 1
#642
b1001 $
b1000 1
#643
b1010 $
b1001 1
#644
b1011 $
b1010 1
#645
b1100 $
b1011 1
#646
b1101 $
b1100 1
#647
b1110 $
b1101 1
#648
b1111 $
b1110 1
#649
b10000 $
b1111 1
#650
b10001 $
b10000 1
#651
b10010 $
b10001 1
#652
b10011 $
b10010 1
#653
b10100 $
b10011 1
#654
b10101 $
b10100 1
#655
b10110 $
b10101 1
#656
b10111 $
b10110 1
#657
b11000 $
b10111 1
#658
b11001 $
b11000 1
#659
b11010 $
b11001 1
#660
b11011 $
b11010 1
#661
b11100 $
b11011 1
#662
b11101 $
b11100 1
#663
b11110 $
b11101 1
#664
b11111 $
b11110 1
#665
1#
b0 $
b11111 1
#666
b1 $
b1 )
#667
b10 $
b10 )
#668
b11 $
b11 )
#669
b100 $
b100 )
#670
b101 $
b101 )
#671
b110 $
b110 )
#672
b111 $
b111 )
#673
b1000 $
b1000 )
#674
b1001 $
b1001 )
#675
b1010 $
b1010 )
#676
b1011 $
b1011 )
#677
b1100 $
b1100 )
#678
b1101 $
b1101 )
#679
b1110 $
b1110 )
#680
b1111 $
b1111 )
#681
b10000 $
b10000 )
#682
b10001 $
b10001 )
#683
b10010 $
b10010 )
#684
b10011 $
b10011 )
#685
b10100 $
b10100 )
#686
b10101 $
b10101 )
#687
b10110 $
b10110 )
#688
b10111 $
b10111 )
#689
b11000 $
b11000 )
#690
b11001 $
b11001 )
#691
b11010 $
b11010 )
#692
b11011 $
b11011 )
#693
b11100 $
b11100 )
#694
b11101 $
b11101 )
#695
b11110 $
b11110 )
#696
b11111 $
b11111 )
#697
0#
b0 $
b100000 )
#698
b1 $
b0 )
b0 1
#699
b10 $
b1 1
#700
b11 $
b10 1
#701
b100 $
b11 1
#702
b101 $
b100 1
#703
b110 $
b101 1
#704
b111 $
b110 1
#705
b1000 $
b111 1
#706
b1001 $
b1000 1
#707
b1010 $
b1001 1
#708
b1011 $
b1010 1
#709
b1100 $
b1011 1
#710
b1101 $
b1100 1
#711
b1110 $
b1101 1
#712
b1111 $
b1110 1
#713
b10000 $
b1111 1
#714
b10001 $
b10000 1
#715
b10010 $
b10001 1
#716
b10011 $
b10010 1
#717
b10100 $
b10011 1
#718
b10101 $
b10100 1
#719
b10110 $
b10101 1
#720
b10111 $
b10110 1
#721
b11000 $
b10111 1
#722
b11001 $
b11000 1
#723
b11010 $
b11001 1
#724
b11011 $
b11010 1
#725
b11100 $
b11011 1
#726
b11101 $
b11100 1
#727
b11110 $
b11101 1
#728
b11111 $
b11110 1
#729
1#
b0 $
b11111 1
#730
b1 $
b1 )
#731
b10 $
b10 )
#732
b11 $
b11 )
#733
b100 $
b100 )
#734
b101 $
b101 )
#735
b110 $
b110 )
#736
b111 $
b111 )
#737
b1000 $
b1000 )
#738
b1001 $
b1001 )
#739
b1010 $
b1010 )
#740
b1011 $
b1011 )
#741
b1100 $
b1100 )
#742
b1101 $
b1101 )
#743
b1110 $
b1110 )
#744
b1111 $
b1111 )
#745
b10000 $
b10000 )
#746
b10001 $
b10001 )
#747
b10010 $
b10010 )
#748
b10011 $
b10011 )
#749
b10100 $
b10100 )
#750
b10101 $
b10101 )
#751
b10110 $
b10110 )
#752
b10111 $
b10111 )
#753
b11000 $
b11000 )
#754
b11001 $
b11001 )
#755
b11010 $
b11010 )
#756
b11011 $
b11011 )
#757
b11100 $
b11100 )
#758
b11101 $
b11101 )
#759
b11110 $
b11110 )
#760
b11111 $
b11111 )
#761
0#
b0 $
b100000 )
#762
b1 $
b0 )
b0 1
#763
b10 $
b1 1
#764
b11 $
b10 1
#765
b100 $
b11 1
#766
b101 $
b100 1
#767
b110 $
b101 1
#768
b111 $
b110 1
#769
b1000 $
b111 1
#770
b1001 $
b1000 1
#771
b1010 $
b1001 1
#772
b1011 $
b1010 1
#773
b1100 $
b1011 1
#774
b1101 $
b1100 1
#775
b1110 $
b1101 1
#776
b1111 $
b1110 1
#777
b10000 $
b1111 1
#778
b10001 $
b10000 1
#779
b10010 $
b10001 1
#780
b10011 $
b10010 1
#781
b10100 $
b10011 1
#782
b10101 $
b10100 1
#783
b10110 $
b10101 1
#784
b10111 $
b10110 1
#785
b11000 $
b10111 1
#786
b11001 $
b11000 1
#787
b11010 $
b11001 1
#788
b11011 $
b11010 1
#789
b11100 $
b11011 1
#790
b11101 $
b11100 1
#791
b11110 $
b11101 1
#792
b11111 $
b11110 1
#793
1#
b0 $
b11111 1
#794
b1 $
b1 )
#795
b10 $
b10 )
#796
b11 $
b11 )
#797
b100 $
b100 )
#798
b101 $
b101 )
#799
b110 $
b110 )
#800
b111 $
b111 )
#801
b1000 $
b1000 )
#802
b1001 $
b1001 )
#803
b1010 $
b1010 )
#804
b1011 $
b1011 )
#805
b1100 $
b1100 )
#806
b1101 $
b1101 )
#807
b1110 $
b1110 )
#808
b1111 $
b1111 )
#809
b10000 $
b10000 )
#810
b10001 $
b10001 )
#811
b10010 $
b10010 )
#812
b10011 $
b10011 )
#813
b10100 $
b10100 )
#814
b10101 $
b10101 )
#815
b10110 $
b10110 )
#816
b10111 $
b10111 )
#817
b11000 $
b11000 )
#818
b11001 $
b11001 )
#819
b11010 $
b11010 )
#820
b11011 $
b11011 )
#821
b11100 $
b11100 )
#822
b11101 $
b11101 )
#823
b11110 $
b11110 )
#824
b11111 $
b11111 )
#825
0#
b0 $
b100000 )
#826
b1 $
b0 )
b0 1
#827
b10 $
b1 1
#828
b11 $
b10 1
#829
b100 $
b11 1
#830
b101 $
b100 1
#831
b110 $
b101 1
#832
b111 $
b110 1
#833
b1000 $
b111 1
#834
b1001 $
b1000 1
#835
b1010 $
b1001 1
#836
b1011 $
b1010 1
#837
b1100 $
b1011 1
#838
b1101 $
b1100 1
#839
b1110 $
b1101 1
#840
b1111 $
b1110 1
#841
b10000 $
b1111 1
#842
b10001 $
b10000 1
#843
b10010 $
b10001 1
#844
b10011 $
b10010 1
#845
b10100 $
b10011 1
#846
b10101 $
b10100 1
#847
b10110 $
b10101 1
#848
b10111 $
b10110 1
#849
b11000 $
b10111 1
#850
b11001 $
b11000 1
#851
b11010 $
b11001 1
#852
b11011 $
b11010 1
#853
b11100 $
b11011 1
#854
b11101 $
b11100 1
#855
b11110 $
b11101 1
#856
b11111 $
b11110 1
#857
1#
b0 $
b11111 1
#858
b1 $
b1 )
#859
b10 $
b10 )
#860
b11 $
b11 )
#861
b100 $
b100 )
#862
b101 $
b101 )
#863
b110 $
b110 )
#864
b111 $
b111 )
#865
b1000 $
b1000 )
#866
b1001 $
b1001 )
#867
b1010 $
b1010 )
#868
b1011 $
b1011 )
#869
b1100 $
b1100 )
#870
b1101 $
b1101 )
#871
b1110 $
b1110 )
#872
b1111 $
b1111 )
#873
b10000 $
b10000 )
#874
b10001 $
b10001 )
#875
b10010 $
b10010 )
#876
b10011 $
b10011 )
#877
b10100 $
b10100 )
#878
b10101 $
b10101 )
#879
b10110 $
b10110 )
#880
b10111 $
b10111 )
#881
b11000 $
b11000 )
#882
b11001 $
b11001 )
#883
b11010 $
b11010 )
#884
b11011 $
b11011 )
#885
b11100 $
b11100 )
#886
b11101 $
b11101 )
#887
b11110 $
b11110 )
#888
b11111 $
b11111 )
#889
0#
b0 $
b100000 )
#890
b1 $
b0 )
b0 1
#891
b10 $
b1 1
#892
b11 $
b10 1
#893
b100 $
b11 1
#894
b101 $
b100 1
#895
b110 $
b101 1
#896
b111 $
b110 1
#897
b1000 $
b111 1
#898
b1001 $
b1000 1
#899
b1010 $
b1001 1
#900
b1011 $
b1010 1
#901
b1100 $
b1011 1
#902
b1101 $
b1100 1
#903
b1110 $
b1101 1
#904
b1111 $
b1110 1
#905
b10000 $
b1111 1
#906
b10001 $
b10000 1
#907
b10010 $
b10001 1
#908
b10011 $
b10010 1
#909
b10100 $
b10011 1
#910
b10101 $
b10100 1
#911
b10110 $
b10101 1
#912
b10111 $
b10110 1
#913
b11000 $
b10111 1
#914
b11001 $
b11000 1
#915
b11010 $
b11001 1
#916
b11011 $
b11010 1
#917
b11100 $
b11011 1
#918
b11101 $
b11100 1
#919
b11110 $
b11101 1
#920
b11111 $
b11110 1
#921
1#
b0 $
b11111 1
#922
b1 $
b1 )
#923
b10 $
b10 )
#924
b11 $
b11 )
#925
b100 $
b100 )
#926
b101 $
b101 )
#927
b110 $
b110 )
#928
b111 $
b111 )
#929
b1000 $
b1000 )
#930
b1001 $
b1001 )
#931
b1010 $
b1010 )
#932
b1011 $
b1011 )
#933
b1100 $
b1100 )
#934
b1101 $
b1101 )
#935
b1110 $
b1110 )
#936
b1111 $
b1111 )
#937
b10000 $
b10000 )
#938
b10001 $
b10001 )
#939
b10010 $
b10010 )
#940
b10011 $
b10011 )
#941
b10100 $
b10100 )
#942
b10101 $
b10101 )
#943
b10110 $
b10110 )
#944
b10111 $
b10111 )
#945
b11000 $
b11000 )
#946
b11001 $
b11001 )
#947
b11010 $
b11010 )
#948
b11011 $
b11011 )
#949
b11100 $
b11100 )
#950
b11101 $
b11101 )
#951
b11110 $
b11110 )
#952
b11111 $
b11111 )
#953
0#
b0 $
b100000 )
#954
b1 $
b0 )
b0 1
#955
b10 $
b1 1
#956
b11 $
b10 1
#957
b100 $
b11 1
#958
b101 $
b100 1
#959
b110 $
b101 1
#960
b111 $
b110 1
#961
b1000 $
b111 1
#962
b1001 $
b1000 1
#963
b1010 $
b1001 1
#964
b1011 $
b1010 1
#965
b1100 $
b1011 1
#966
b1101 $
b1100 1
#967
b1110 $
b1101 1
#968
b1111 $
b1110 1
#969
b10000 $
b1111 1
#970
b10001 $
b10000 1
#971
b10010 $
b10001 1
#972
b10011 $
b10010 1
#973
b10100 $
b10011 1
#974
b10101 $
b10100 1
#975
b10110 $
b10101 1
#976
b10111 $
b10110 1
#977
b11000 $
b10111 1
#978
b11001 $
b11000 1
#979
b11010 $
b11001 1
#980
b11011 $
b11010 1
#981
b11100 $
b11011 1
#982
b11101 $
b11100 1
#983
b11110 $
b11101 1
#984
b11111 $
b11110 1
#985
1#
b0 $
b11111 1
#986
b1 $
b1 )
#987
b10 $
b10 )
#988
b11 $
b11 )
#989
b100 $
b100 )
#990
b101 $
b101 )
#991
b110 $
b110 )
#992
b111 $
b111 )
#993
b1000 $
b1000 )
#994
b1001 $
b1001 )
#995
b1010 $
b1010 )
